Time;Volume
540;244.86878093863106
541;244.15967004029312
542;243.45366381791996
543;242.75076227151158
544;242.05096540106774
545;241.3542732065887
546;240.6606856880744
547;239.9702028455249
548;239.28282467893996
549;238.5985511883199
550;237.9173823736645
551;237.23931823497378
552;236.56435877224794
553;235.89250398548666
554;235.22375387469015
555;234.55810843985842
556;233.89556768099146
557;233.23613159808906
558;232.57980019115143
559;231.9265734601786
560;231.27645140517052
561;230.62943402612711
562;229.9855213230485
563;229.34471329593453
564;228.70700994478534
565;228.0724112696007
566;227.44091727038108
567;226.81252794712577
568;226.18724329983547
569;225.56506332850984
570;224.94598803314898
571;224.33001741375278
572;223.71715147032137
573;223.10739020285473
574;222.50073361135276
575;221.89718169581556
576;221.29673445624303
577;220.69939189263528
578;220.1051540049922
579;219.51402079331388
580;218.92599225760023
581;218.34106839785136
582;217.75924921406727
583;217.18053470624784
584;216.6049248743932
585;216.0324197185032
586;215.46301923857789
587;214.89672343461746
588;214.33353230662158
589;213.7734458545906
590;213.21646407852427
591;212.6625869784226
592;212.11181455428573
593;211.56414680611363
594;211.0195837339062
595;210.4781253376634
596;209.93977161738542
597;209.4045225730722
598;208.87237820472365
599;208.34333851233987
600;207.81740349592087
601;207.29457315546642
602;206.77484749097687
603;206.25822650245198
604;205.74471018989152
605;205.23429855329607
606;204.7269915926654
607;204.2227893079994
608;203.72169169929816
609;203.2236987665616
610;202.7288105097898
611;202.2370269289827
612;201.74834802414034
613;201.26277379526277
614;200.78030424234987
615;200.30093936540163
616;199.82467916441828
617;199.3515236393995
618;198.88147279034547
619;198.41452661725623
620;197.95068512013165
621;197.48994829897185
622;197.03231615377683
623;196.57778868454648
624;196.12636589128078
625;195.67804777397987
626;195.23283433264373
627;194.79072556727226
628;194.35172147786545
629;193.91582206442354
630;193.48302732694617
631;193.0533372654337
632;192.6267518798859
633;192.20327117030274
634;191.78289513668437
635;191.36562377903067
636;190.95145709734174
637;190.5403950916176
638;190.1324377618581
639;189.7275851080634
640;189.32583713023314
641;188.92719382836788
642;188.53165520246728
643;188.13922125253146
644;187.7498919785603
645;187.36366738055392
646;186.98054745851232
647;186.60053221243538
648;186.22362164232322
649;185.84981574817573
650;185.4791145299929
651;185.11151798777496
652;184.74702612152157
653;184.38563893123307
654;184.02735641690924
655;183.67217857855007
656;183.32010541615568
657;182.97113692972607
658;182.62527311926112
659;182.28251398476084
660;181.94285952622533
661;181.6063097436546
662;181.27286463704854
663;180.94252420640726
664;180.61528845173075
665;180.2911573730188
666;179.97013097027173
667;179.65220924348932
668;179.3373921926716
669;179.02567981781863
670;178.71707211893045
671;178.41156909600693
672;178.1091707490482
673;177.80987707805411
674;177.51368808302482
675;177.22060376396018
676;176.93062412086033
677;176.64374915372503
678;176.3599788625546
679;176.07931324734886
680;175.801752308108
681;175.5272960448317
682;175.25594445752017
683;174.98769754617342
684;174.72255531079134
685;174.46051775137403
686;174.2015848679215
687;173.94575666043363
688;173.69303312891043
689;173.443414273352
690;173.19690009375836
691;172.95349059012938
692;172.71318576246506
693;172.47598561076563
694;172.24189013503076
695;172.01089933526077
696;171.78301321145545
697;171.5582317636148
698;171.33655499173892
699;171.1179828958277
700;170.90251547588127
701;170.69015273189962
702;170.48089466388262
703;170.2747412718304
704;170.07169255574286
705;169.87174851562008
706;169.67490915146197
707;169.48117446326864
708;169.29054445103998
709;169.1030191147761
710;168.91859845447698
711;168.73728247014253
712;168.55907116177286
713;168.38396452936786
714;168.2119625729273
715;168.04306529245184
716;167.87727268794094
717;167.71458475939494
718;167.5550015068136
719;167.39852293019692
720;167.24514902954502
721;167.0948798048579
722;166.94771525613544
723;166.80365538337765
724;166.66270018658463
725;166.5248496657564
726;166.39010382089282
727;166.25846265199402
728;166.12992615906
729;166.00449434209054
730;165.88216720108596
731;165.76294473604605
732;165.6468269469708
733;165.53381383386034
734;165.42390539671464
735;165.31710163553362
736;165.21340255031737
737;165.11280814106578
738;165.01531840777898
739;164.92093335045683
740;164.82965296909947
741;164.74147726370688
742;164.65640623427896
743;164.5744398808157
744;164.49557820331734
745;164.41982120178352
746;164.34716887621448
747;164.27762122661022
748;164.21117825297063
749;164.1478399552958
750;164.08760633358554
751;164.03047738784016
752;163.97645311805945
753;163.92553352424352
754;163.87771860639236
755;163.83300836450587
756;163.79140279858404
757;163.7529019086271
758;163.71750569463472
759;163.68521415660723
760;163.6560272945444
761;163.62994510844624
762;163.60696759831285
763;163.58709476414413
764;163.57032660594018
765;163.55666312370101
766;163.5461043174265
767;163.5386501871168
768;163.53430073277173
769;163.53305595439144
770;163.53491585197582
771;163.53988042552498
772;163.5479496750388
773;163.5591236005174
774;163.5734022019608
775;163.59078547936883
776;163.61127343274165
777;163.63486606207914
778;163.6615633673813
779;163.69136534864833
780;163.72427200587993
781;163.7602833390764
782;163.79939934823756
783;163.84162003336337
784;163.88694539445396
785;163.93537543150933
786;163.98691014452936
787;164.04154953351383
788;164.0992935984633
789;164.16014233937756
790;164.22409575625647
791;164.29115384910017
792;164.36131661790864
793;164.43458406268167
794;164.51095618341958
795;164.59043298012216
796;164.6730144527894
797;164.75870060142142
798;164.84749142601822
799;164.9393869265797
800;165.03438710310593
801;165.13249195559683
802;165.23370148405252
803;165.33801568847286
804;165.445434568858
805;165.5559581252079
806;165.66958635752246
807;165.7863192658017
808;165.90615685004582
809;166.0290991102545
810;166.15514604642794
811;166.28429765856617
812;166.41655394666907
813;166.55191491073674
814;166.69038055076908
815;166.8319508667662
816;166.97662585872808
817;167.12440552665475
818;167.27528987054598
819;167.42927889040197
820;167.58637258622275
821;167.74657095800808
822;167.9098740057584
823;168.07628172947307
824;168.24579412915273
825;168.41841120479694
826;168.59413295640616
827;168.77295938397992
828;168.95489048751847
829;169.1399262670218
830;169.3280667224899
831;169.51931185392255
832;169.71366166131997
833;169.91111614468218
834;170.11167530400917
835;170.3153391393007
836;170.52210765055702
837;170.7319808377781
838;170.94495870096398
839;171.1610412401144
840;171.38022845522983
841;171.6025203463098
842;171.82791691335456
843;172.05641815636386
844;172.28802407533817
845;172.52273467027703
846;172.76054994118067
847;173.0014698880491
848;173.24549451088205
849;173.4926238096798
850;173.74285778444232
851;173.99619643516962
852;174.2526397618617
853;174.51218776451833
854;174.77484044313974
855;175.04059779772592
856;175.30945982827689
857;175.5814265347924
858;175.85649791727246
859;176.13467397571753
860;176.41595471012738
861;176.700340120502
862;176.98783020684118
863;177.27842496914514
864;177.57212440741387
865;177.86892852164738
866;178.16883731184544
867;178.47185077800827
868;178.7779689201359
869;179.08719173822828
870;179.39951923228523
871;179.71495140230718
872;180.03348824829368
873;180.35512977024496
874;180.6798759681608
875;181.00772684204162
876;181.338682391887
877;181.67274261769717
878;182.00990751947188
879;182.3501770972116
880;182.69355135091587
881;183.04003028058492
882;183.38961388621874
883;183.74230216781712
884;184.0980951253805
885;184.45699275890843
886;184.81899506840114
887;185.1841020538584
888;185.55231371528066
889;185.92363005266748
890;186.29805106601907
891;186.67557675533544
892;187.05620712061636
893;187.43994216186206
894;187.82678187907277
895;188.2167262722478
896;188.60977534138783
897;189.00592908649242
898;189.405187507562
899;189.80755060459592
900;190.21301837759484
901;190.62159082655853
902;191.03326795148678
903;191.4480497523798
904;191.8659362292376
905;192.28692738205996
906;192.71102321084732
907;193.13822371559922
908;193.5685288963159
909;194.00193875299715
910;194.4384532856434
911;194.87807249425418
912;195.32079637882975
913;195.7666249393701
914;196.215558175875
915;196.66759608834445
916;197.1227386767789
917;197.58098594117814
918;198.04233788154193
919;198.50679449787071
920;198.97435579016405
921;199.44502175842217
922;199.91879240264484
923;200.3956677228325
924;200.87564771898474
925;201.35873239110174
926;201.84492173918352
927;202.33421576323008
928;202.82661446324119
929;203.32211783921707
930;203.82072589115774
931;204.32243861906318
932;204.82725602293317
933;205.33517810276794
934;205.8462048585675
935;206.36033629033182
936;206.87757239806092
937;207.39791318175457
938;207.921358641413
939;208.44790877703622
940;208.9775635886242
941;209.51032307617675
942;210.04618723969406
943;210.58515607917616
944;211.12722959462303
945;211.67240778603468
946;212.22069065341088
947;212.77207819675186
948;213.32657041605762
949;213.88416731132793
950;214.44486888256324
951;215.0086751297631
952;215.57558605292775
953;216.14560165205694
954;216.71872192715114
955;217.29494687820988
956;217.8742765052334
957;218.45671080822171
958;219.0422497871748
959;219.63089344209243
960;220.22264177297484
961;220.81749477982203
962;221.415452462634
963;222.0165148214105
964;222.6206818561518
965;223.22795356685788
966;223.83832995352873
967;224.45181101616413
968;225.06839675476454
969;225.6880871693295
970;226.31088225985923
971;226.9367820263535
972;227.5657864688128
973;228.19789558723664
974;228.83310938162526
975;229.47142785197866
976;230.1128509982966
977;230.75737882057933
978;231.40501131882684
979;232.05574849303912
980;232.70959034321618
981;233.3665368693578
982;234.02658807146418
983;234.68974394953534
984;235.35600450357128
985;236.02536973357178
986;236.69783963953705
987;237.3734142214671
988;238.05209347936147
989;238.73387741322108
990;239.41876602304524
991;240.10675930883417
992;240.79785727058788
993;241.49205990830637
994;242.18936722198941
995;242.88977921163723
996;243.59329587724983
997;244.2999172188272
998;245.00964323636913
999;245.72247392987606
1000;246.43840929934754
1001;247.1574493447838
1002;247.8795940661846
1003;248.60484346355042
1004;249.3331975368808
1005;250.06465628617593
1006;250.79921971143563
1007;251.53688781266032
1008;252.27766058984957
1009;253.0215380430036
1010;253.7685201721224
1011;254.51860697720576
1012;255.27179845825412
1013;256.02809461526704
1014;256.7874954482447
1015;257.55000095718697
1016;258.3156111420942
1017;259.084326002966
1018;259.8561455398026
1019;260.63106975260393
1020;261.40909864136984
1021;262.1902322061005
1022;262.9744704467962
1023;263.7618133634562
1024;264.5522609560812
1025;265.3458132246708
1026;266.14247016922536
1027;266.94223178974426
1028;267.74509808622815
1029;268.55106905867683
1030;269.36014470709006
1031;270.17232503146806
1032;270.98761003181085
1033;271.8059997081182
1034;272.6274940603905
1035;273.4520930886274
1036;274.2797967928291
1037;275.1106051729953
1038;275.9445182291265
1039;276.7815359612223
1040;277.62165836928284
1041;278.46488545330817
1042;279.31121721329805
1043;280.16065364925294
1044;281.0131947611724
1045;281.8688405490566
1046;282.72759101290535
1047;283.5894461527191
1048;284.45440596849744
1049;285.32247046024054
1050;286.1936396279482
1055;290.5960556059583
1056;291.4858528294544
1057;292.3787547289153
