Time;Volume
540;2982.0268222810846
541;2971.2458213890022
542;2960.51115535387
543;2949.8228241756988
544;2939.1808278544777
545;2928.585166390216
546;2918.0358397829077
547;2907.532848032555
548;2897.07619113916
549;2886.6658691027187
550;2876.3018819232348
551;2865.9842296007027
552;2855.71291213513
553;2845.487929526509
554;2835.3092817748475
555;2825.1769688801396
556;2815.0909908423855
557;2805.0513476615906
558;2795.058039337746
559;2785.111065870864
560;2775.2104272609304
561;2765.356123507958
562;2755.548154611939
563;2745.786520572874
564;2736.0712213907664
565;2726.4022570656125
566;2716.779627597416
567;2707.2033329861733
568;2697.673373231888
569;2688.1897483345583
570;2678.7524582941805
571;2669.361503110762
572;2660.016882784297
573;2650.71859731479
574;2641.4666467022344
575;2632.261030946638
576;2623.1017500479975
577;2613.988804006309
578;2604.9221928215793
579;2595.9019164938018
580;2586.9279750229834
581;2578.000368409117
582;2569.119096652208
583;2560.2841597522565
584;2551.495557709257
585;2542.7532905232147
586;2534.057358194126
587;2525.407760721995
588;2516.804498106818
589;2508.247570348598
590;2499.7369774473354
591;2491.272719403023
592;2482.8547962156717
593;2474.4832078852705
594;2466.1579544118285
595;2457.8790357953403
596;2449.6464520358095
597;2441.4602031332342
598;2433.3202890876128
599;2425.2267098989487
600;2417.1794655672365
601;2409.1785560924836
602;2401.2239814746863
603;2393.315741713841
604;2385.4538368099547
605;2377.6382667630205
606;2369.8690315730437
607;2362.1461312400206
608;2354.469565763957
609;2346.8393351448485
610;2339.2554393826904
611;2331.7178784774933
612;2324.226652429248
613;2316.7817612379604
614;2309.3832049036264
615;2302.03098342625
616;2294.7250968058306
617;2287.4655450423616
618;2280.2523281358535
619;2273.0854460862956
620;2265.964898893697
621;2258.89068655805
622;2251.8628090793645
623;2244.8812664576326
624;2237.9460586928526
625;2231.057185785032
626;2224.214647734163
627;2217.4184445402534
628;2210.6685762032957
629;2203.9650427232973
630;2197.3078441002544
631;2190.6969803341635
632;2184.132451425032
633;2177.614257372852
634;2171.1423981776297
635;2164.716873839361
636;2158.337684358052
637;2152.004829733696
638;2145.7183099662943
639;2139.47812505585
640;2133.284275002359
641;2127.136759805826
642;2121.0355794662464
643;2114.9807339836243
644;2108.9722233579596
645;2103.010047589245
646;2097.0942066774896
647;2091.224700622688
648;2085.401529424844
649;2079.6246930839516
650;2073.8941916000185
651;2068.210024973041
652;2062.5721932030156
653;2056.9806962899493
654;2051.435534233835
655;2045.9367070346798
656;2040.4842146924766
657;2035.0780572072326
658;2029.7182345789442
659;2024.404746807606
660;2019.1375938932288
661;2013.9167758358035
662;2008.7422926353374
663;2003.6141442918215
664;1998.5323308052666
665;1993.4968521756655
666;1988.5077084030181
667;1983.5648994873281
668;1978.668425428592
669;1973.8182862268131
670;1969.0144818819863
671;1964.2570123941205
672;1959.5458777632084
673;1954.8810779892483
674;1950.2626130722474
675;1945.6904830122003
676;1941.1646878091105
677;1936.6852274629728
678;1932.2521019737942
679;1927.8653113415712
680;1923.5248555663002
681;1919.2307346479884
682;1914.9829485866285
683;1910.781497382226
684;1906.6263810347773
685;1902.5175995442878
686;1898.455152910754
687;1894.43904113417
688;1890.4692642145474
689;1886.5458221518766
690;1882.6687149461632
691;1878.8379425974035
692;1875.0535051056013
693;1871.3154024707565
694;1867.6236346928617
695;1863.9782017719263
696;1860.3791037079445
697;1856.8263405009202
698;1853.3199121508478
699;1849.8598186577365
700;1846.446060021579
701;1843.0786362423732
702;1839.7575473201268
703;1836.4827932548324
704;1833.254374046497
705;1830.0722896951138
706;1826.9365402006897
707;1823.8471255632212
708;1820.8040457827046
709;1817.8073008591473
710;1814.85689079254
711;1811.952815582894
712;1809.0950752301997
713;1806.2836697344628
714;1803.5185990956834
715;1800.799863313856
716;1798.1274623889858
717;1795.5013963210695
718;1792.9216651101106
719;1790.3882687561054
720;1787.9012072590576
721;1785.4604806189654
722;1783.066088835827
723;1780.718031909646
724;1778.416309840417
725;1776.160922628147
726;1773.951870272831
727;1771.7891527744723
728;1769.6727701330692
729;1767.602722348618
730;1765.579009421126
731;1763.601631350586
732;1761.6705881370053
733;1759.7858797803765
734;1757.947506280705
735;1756.155467637991
736;1754.409763852229
737;1752.710394923426
738;1751.0573608515733
739;1749.4506616366816
740;1747.8902972787419
741;1746.3762677777595
742;1744.9085731337345
743;1743.4872133466597
744;1742.112188416546
745;1740.7834983433822
746;1739.5011431271796
747;1738.265122767927
748;1737.0754372656338
749;1735.932086620296
750;1734.8350708319122
751;1733.7843899004856
752;1732.780043826011
753;1731.8220326084956
754;1730.9103562479322
755;1730.045014744328
756;1729.2260080976794
757;1728.4533363079827
758;1727.7269993752452
759;1727.0469972994597
760;1726.4133300806334
761;1725.825997718759
762;1725.285000213842
763;1724.7903375658825
764;1724.342009774875
765;1723.9400168408247
766;1723.5843587637282
767;1723.2750355435892
768;1723.0120471804075
769;1722.795393674176
770;1722.6250750249055
771;1722.5010912325852
772;1722.4234422972258
773;1722.3921282188167
774;1722.4071489973667
775;1722.468504632874
776;1722.5761951253317
777;1722.7302204747484
778;1722.9305806811171
779;1723.177275744445
780;1723.470305664725
781;1723.809670441964
782;1724.1953700761587
783;1724.6274045673053
784;1725.1057739154112
785;1725.630478120469
786;1726.201517182486
787;1726.8188911014531
788;1727.4825998773813
789;1728.192643510265
790;1728.9490220001007
791;1729.7517353468938
792;1730.6007835506407
793;1731.496166611345
794;1732.437884529003
795;1733.4259373036184
796;1734.4603249351912
797;1735.5410474237142
798;1736.6681047691964
799;1737.8414969716323
800;1739.0612240310256
801;1740.327285947371
802;1741.6396827206754
803;1742.9984143509373
804;1744.4034808381493
805;1745.8548821823206
806;1747.3526183834438
807;1748.8966894415262
808;1750.4870953565605
809;1752.123836128554
810;1753.8069117575033
811;1755.5363222434025
812;1757.3120675862629
813;1759.1341477860751
814;1761.0025628428466
815;1762.9173127565682
816;1764.8783975272509
817;1766.885817154889
818;1768.9395716394774
819;1771.0396609810268
820;1773.1860851795263
821;1775.378844234987
822;1777.6179381473976
823;1779.9033669167675
824;1782.2351305430948
825;1784.6132290263722
826;1787.0376623666089
827;1789.5084305637993
828;1792.025533617947
829;1794.5889715290468
830;1797.1987442971058
831;1799.8548519221204
832;1802.5572944040869
833;1805.3060717430126
834;1808.1011839388902
835;1810.9426309917271
836;1813.830412901516
837;1816.764529668264
838;1819.7449812919658
839;1822.7717677726214
840;1825.8448891102362
841;1828.964345304801
842;1832.1301363563289
843;1835.3422622648031
844;1838.600723030242
845;1841.9055186526311
846;1845.2566491319776
847;1848.6541144682778
848;1852.0979146615355
849;1855.5880497117469
850;1859.124519618912
851;1862.7073243830382
852;1866.3364640041182
853;1870.011938482152
854;1873.733747817143
855;1877.5018920090843
856;1881.3163710579865
857;1885.1771849638426
858;1889.084333726656
859;1893.0378173464233
860;1897.0376358231442
861;1901.0837891568262
862;1905.1762773474584
863;1909.315100395048
864;1913.5002582995912
865;1917.731751061092
866;1922.00957867955
867;1926.333741154962
868;1930.7042384873275
869;1935.1210706766506
870;1939.5842377229274
871;1944.0937396261616
872;1948.6495763863495
873;1953.2517480034985
874;1957.900254477594
875;1962.5950958086505
876;1967.3362719966608
877;1972.1237830416285
878;1976.95762894355
879;1981.8378097024288
880;1986.764325318265
881;1991.7371757910514
882;1996.7563611207952
883;2001.8218813074927
884;2006.9337363511513
885;2012.09192625176
886;2017.2964510093261
887;2022.5473106238496
888;2027.8445050953233
889;2033.188034423758
890;2038.5778986091464
891;2044.0140976514922
892;2049.496631550788
893;2055.025500307045
894;2060.600703920256
895;2066.2222423904204
896;2071.8901157175424
897;2077.604323901618
898;2083.364866942651
899;2089.171744840638
900;2095.0249575955822
901;2100.924505207484
902;2106.8703876763357
903;2112.862605002145
904;2118.901157184908
905;2124.9860442246318
906;2131.117266121306
907;2137.294822874941
908;2143.51871448553
909;2149.788940953069
910;2156.105502277569
911;2162.468398459023
912;2168.877629497434
913;2175.3331953927955
914;2181.835096145118
915;2188.3833317543904
916;2194.977902220624
917;2201.6188075438113
918;2208.306047723956
919;2215.039622761051
920;2221.819532655103
921;2228.6457774061164
922;2235.51835701408
923;2242.4372714790043
924;2249.4025208008716
925;2256.414104979707
926;2263.472024015493
927;2270.576277908236
928;2277.7268666579366
929;2284.9237902645837
930;2292.1670487281954
931;2299.456642048761
932;2306.79257022628
933;2314.1748332607494
934;2321.6034311521835
935;2329.0783639005713
936;2336.599631505913
937;2344.167233968212
938;2351.781171287461
939;2359.441443463671
940;2367.148050496835
941;2374.900992386956
942;2382.7002691340313
943;2390.5458807380564
944;2398.4378271990463
945;2406.3761085169863
946;2414.3607246918873
947;2422.391675723731
948;2430.4689616125434
949;2438.5925823583057
950;2446.762537961029
951;2454.9788284207025
952;2463.241453737326
953;2471.5504139109144
954;2479.9057089414564
955;2488.307338828956
956;2496.755303573409
957;2505.2496031748087
958;2513.790237633173
959;2522.377206948495
960;2531.0105111207704
961;2539.6901501499924
962;2548.416124036179
963;2557.188432779323
964;2566.007076379421
965;2574.8720548364727
966;2583.7833681504744
967;2592.741016321441
968;2601.7449993493574
969;2610.795317234235
970;2619.8919699760663
971;2629.034957574844
972;2638.2242800305867
973;2647.459937343283
974;2656.7419295129366
975;2666.070256539537
976;2675.4449184231016
977;2684.8659151636202
978;2694.3332467610926
979;2703.8469132155224
980;2713.4069145269023
981;2723.013250695243
982;2732.6659217205415
983;2742.3649276027936
984;2752.1102683419995
985;2761.9019439381555
986;2771.739954391276
987;2781.6242997013505
988;2791.5549798683787
989;2801.531994892357
990;2811.5553447733
991;2821.6250295111968
992;2831.7410491060473
993;2841.903403557855
994;2852.1120928666096
995;2862.3671170323287
996;2872.6684760550015
997;2883.0161699346318
998;2893.4101986712158
999;2903.85056226475
1000;2914.337260715245
1001;2924.8702940226976
1002;2935.449662187104
1003;2946.0753652084604
1004;2956.747403086778
1005;2967.465775822053
1006;2978.2304834142815
1007;2989.041525863464
1008;2999.8989031696
1009;3010.8026153326937
1010;3021.7526623527447
1011;3032.749044229753
1012;3043.791760963715
1013;3054.880812554624
1014;3066.016199002497
1015;3077.1979203073242
1016;3088.4259764691087
1017;3099.7003674878433
1018;3111.021093363539
1019;3122.3881540961884
1020;3133.801549685795
1021;3145.2612801323558
1022;3156.7673454358664
1023;3168.319745596338
1024;3179.9184806137673
1025;3191.56355048815
1026;3203.2549552194905
1027;3214.9926948077773
1028;3226.7767692530288
1029;3238.607178555234
1030;3250.4839227143966
1031;3262.407001730513
1032;3274.376415603576
1033;3286.3921643336034
1034;3298.4542479205884
1035;3310.562666364527
1036;3322.717419665416
1037;3334.918507823266
1038;3347.1659308380695
1039;3359.4596887098305
1040;3371.799781438549
1041;3384.1862090242103
1042;3396.61897146684
1043;3409.0980687664232
1044;3421.6235009229604
1045;3434.195267936455
1046;3446.813369806896
1047;3459.4778065343016
1048;3472.188578118661
1049;3484.945684559978
1050;3497.7491258582413
1055;3562.4613552039264
1058;3601.8447110948073
