Time;Volume
540;3045.8014654238777
541;3035.8961858969415
542;3026.0346709902697
543;3016.216920703866
544;3006.442935037725
545;2996.7127139918557
546;2987.0262575662455
547;2977.383565760909
548;2967.784638575833
549;2958.229476011027
550;2948.7180780664858
551;2939.2504447422125
552;2929.826576038202
553;2920.4464719544594
554;2911.110132490985
555;2901.8175576477734
556;2892.5687474248334
557;2883.3637018221543
558;2874.202420839745
559;2865.0849044776005
560;2856.011152735724
561;2846.98116561411
562;2837.994943112768
563;2829.0524852316867
564;2820.1537919708753
565;2811.2988633303285
566;2802.4876993100515
567;2793.7202999100355
568;2784.9966651302893
569;2776.3167949708077
570;2767.680689431594
571;2759.0883485126433
572;2750.5397722139605
573;2742.0349605355477
574;2733.5739134773958
575;2725.1566310395137
576;2716.783113221896
577;2708.4533600245486
578;2700.167371447462
579;2691.925147490645
580;2683.7266881540927
581;2675.5719934378103
582;2667.4610633417888
583;2659.393897866037
584;2651.37049701055
585;2643.390860775333
586;2635.4549891603783
587;2627.562882165692
588;2619.714539791268
589;2611.909962037116
590;2604.149148903227
591;2596.432100389604
592;2588.758816496249
593;2581.1292972231568
594;2573.5435425703363
595;2566.0015525377785
596;2558.5033271254906
597;2551.0488663334636
598;2543.6381701617083
599;2536.271238610214
600;2528.9480716789913
601;2521.6686693680313
602;2514.433031677341
603;2507.241158606914
604;2500.0930501567545
605;2492.9887063268598
606;2485.928127117233
607;2478.911312527871
608;2471.9382625587787
609;2465.008977209949
610;2458.1234564813894
611;2451.2817003730925
612;2444.48370888506
613;2437.7294820172992
614;2431.019019769801
615;2424.352322142571
616;2417.7293891356057
617;2411.15022074891
618;2404.6148169824774
619;2398.1231778363144
620;2391.675303310414
621;2385.271193404782
622;2378.9108481194144
623;2372.5942674543167
624;2366.3214514094816
625;2360.0923999849165
626;2353.907113180614
627;2347.7655909965815
628;2341.6678334328117
629;2335.61384048931
630;2329.6036121660727
631;2323.6371484631018
632;2317.7144493804008
633;2311.8355149179624
634;2306.000345075794
635;2300.2089398538883
636;2294.4612992522525
637;2288.7574232708794
638;2283.097311909776
639;2277.4809651689357
640;2271.908383048365
641;2266.379565548057
642;2260.894512668019
643;2255.453224408244
644;2250.0557007687385
645;2244.7019417494957
646;2239.391947350523
647;2234.125717571813
648;2228.9032524133727
649;2223.724551875195
650;2218.589615957284
651;2213.4984446596427
652;2208.451037982266
653;2203.4473959251573
654;2198.4875184883113
655;2193.571405671735
656;2188.699057475422
657;2183.8704738993783
658;2179.0856549435975
659;2174.3446006080867
660;2169.6473108928403
661;2164.993785797862
662;2160.3840253231465
663;2155.818029468701
664;2151.295798234518
665;2146.817331620605
666;2142.3826296269563
667;2137.991692253576
668;2133.644519500458
669;2129.34111136761
670;2125.081467855027
671;2120.865588962708
672;2116.693474690659
673;2112.565125038873
674;2108.4805400073583
675;2104.4397195961046
676;2100.442663805121
677;2096.4893726344
678;2092.5798460839505
679;2088.714084153762
680;2084.8920868438436
681;2081.1138541541895
682;2077.3793860848036
683;2073.6886826356804
684;2070.041743806829
685;2066.4385695982382
686;2062.8791600099175
687;2059.3635150418613
688;2055.891634694073
689;2052.463518966548
690;2049.0791678592905
691;2045.7385813723013
692;2042.4417595055766
693;2039.18870225912
694;2035.979409632926
695;2032.8138816270039
696;2029.6921182413425
697;2026.614119475953
698;2023.5798853308243
699;2020.5894158059673
700;2017.6427109013712
701;2014.7397706170468
702;2011.8805949529833
703;2009.0651839091915
704;2006.2935374856606
705;2003.5656556824015
706;2000.8815384994032
707;1998.2411859366766
708;1995.644597994211
709;1993.0917746720133
710;1990.5827159700839
711;1988.117421888419
712;1985.695892427022
713;1983.3181275858897
714;1980.9841273650254
715;1978.6938917644256
716;1976.4474207840958
717;1974.2447144240268
718;1972.0857726842296
719;1969.9705955646932
720;1967.8991830654286
721;1965.8715351864266
722;1963.8876519276928
723;1961.9475332892234
724;1960.051179271024
725;1958.1985898730854
726;1956.3897650954186
727;1954.6247049380145
728;1952.9034094008784
729;1951.225878484007
730;1949.5921121874017
731;1948.0021105110645
732;1946.455873454992
733;1944.9534010191892
734;1943.4946932036491
735;1942.0797500083772
736;1940.7085714333698
737;1939.3811574786323
738;1938.0975081441575
739;1936.8576234299508
740;1935.6615033360085
741;1934.5091478623362
742;1933.4005570089266
743;1932.3357307757851
744;1931.314669162908
745;1930.337372170301
746;1929.4038397979566
747;1928.5140720458821
748;1927.6680689140703
749;1926.865830402523
750;1926.1073565112474
751;1925.3926472402345
752;1924.7217025894915
753;1924.0945225590112
754;1923.5111071488009
755;1922.9714563588532
756;1922.4755701891754
757;1922.0234486397585
758;1921.6150917106133
759;1921.2504994017308
760;1920.9296717131183
761;1920.6526086447684
762;1920.4193101966885
763;1920.2297763688712
764;1920.0840071613238
765;1919.9820025740391
766;1919.9237626070244
767;1919.9092872602723
768;1919.9385765337865
769;1920.0116304275707
770;1920.1284489416175
771;1920.2890320759343
772;1920.4933798305137
773;1920.741492205363
774;1921.0333692004751
775;1921.369010815857
776;1921.7484170515017
777;1922.1715879074163
778;1922.6385233835936
779;1923.1492234800407
780;1923.7036881967524
781;1924.3019175337322
782;1924.9439114909746
783;1925.629670068487
784;1926.359193266262
785;1927.132481084307
786;1927.9495335226147
787;1928.8103505811923
788;1929.7149322600344
789;1930.663278559141
790;1931.6553894785175
791;1932.6912650181566
792;1933.7709051780657
793;1934.8943099582375
794;1936.061479358681
795;1937.2724133793854
796;1938.5271120203597
797;1939.8255752815967
798;1941.1678031631054
799;1942.553795664875
800;1943.9835527869145
801;1945.4570745292167
802;1946.9743608917906
803;1948.5354118746254
804;1950.1402274777301
805;1951.7888077010975
806;1953.4811525447367
807;1955.2172620086367
808;1956.997136092803
809;1958.820774797241
810;1960.68817812194
811;1962.5993460669088
812;1964.554278632142
813;1966.5529758176435
814;1968.5954376234076
815;1970.6816640494435
816;1972.8116550957402
817;1974.9854107623069
818;1977.202931049138
819;1979.4642159562372
820;1981.769265483601
821;1984.1180796312328
822;1986.5106583991274
823;1988.9470017872936
824;1991.4271097957208
825;1993.9509824244196
826;1996.5186196733794
827;1999.1300215426108
828;2001.7851880321032
829;2004.4841191418636
830;2007.2268148718922
831;2010.0132752221853
832;2012.8435001927464
833;2015.717489783572
834;2018.6352439946659
835;2021.5967628260241
836;2024.6020462776505
837;2027.6510943495414
838;2030.7439070417004
839;2033.8804843541238
840;2037.0608262868154
841;2040.2849328397715
842;2043.5528040129957
843;2046.8644398064844
844;2050.219840220243
845;2053.6190052542624
846;2057.0619349085537
847;2060.5486291831057
848;2064.079088077926
849;2067.653311593016
850;2071.271299728367
851;2074.9330524839897
852;2078.638569859875
853;2082.3878518560286
854;2086.1808984724466
855;2090.0177097091346
856;2093.8982855660834
857;2097.822626043304
858;2101.790731140787
859;2105.8026008585384
860;2109.8582351965542
861;2113.95763415484
862;2118.1007977333884
863;2122.287725932205
864;2126.518418751286
865;2130.792876190637
866;2135.1110982502505
867;2139.4730849301304
868;2143.8788362302803
869;2148.328352150689
870;2152.8216326913716
871;2157.3586778523168
872;2161.939487633532
873;2166.5640620350096
874;2171.232401056757
875;2175.9445046987676
876;2180.700372961048
877;2185.5000058435908
878;2190.3434033464036
879;2195.230565469479
880;2200.161492212821
881;2205.136183576429
882;2210.1546395603073
883;2215.216860164448
884;2220.3228453888587
885;2225.472595233532
886;2230.6661096984753
887;2235.9033887836813
888;2241.1844324891536
889;2246.5092408148957
890;2251.8778137609006
891;2257.2901513271754
892;2262.746253513713
893;2268.2461203205203
894;2273.7897517475903
895;2279.3771477949304
896;2285.008308462533
897;2290.6832337504056
898;2296.401923658541
899;2302.164378186946
900;2307.970597335614
901;2313.820581104552
902;2319.7143294937523
903;2325.6518425032227
904;2331.633120132956
905;2337.658162382959
906;2343.7269692532245
907;2349.8395407437565
908;2355.9958768545584
909;2362.195977585623
910;2368.4398429369576
911;2374.727472908555
912;2381.058867500422
913;2387.4340267125554
914;2393.852950544955
915;2400.3156389976175
916;2406.82209207055
917;2413.372309763745
918;2419.96629207721
919;2426.6040390109374
920;2433.285550564935
921;2440.010826739195
922;2446.7798675337253
923;2453.592672948518
924;2460.4492429835846
925;2467.34957763891
926;2474.2936769145017
927;2481.2815408103634
928;2488.3131693264877
929;2495.388562462882
930;2502.507720219539
931;2509.6706425964658
932;2516.877329593659
933;2524.1277812111184
934;2531.4219974488406
935;2538.7599783068326
936;2546.1417237850874
937;2553.567233883612
938;2561.0365086023994
939;2568.5495479414603
940;2576.1063519007803
941;2583.70692048037
942;2591.3512536802227
943;2599.039351500345
944;2606.7712139407304
945;2614.546841001389
946;2622.366232682307
947;2630.229388983491
948;2638.136309904945
949;2646.0869954466616
950;2654.081445608652
951;2662.119660390901
952;2670.2016397934203
953;2678.327383816202
954;2686.4968924592577
955;2694.710165722572
956;2702.9672036061565
957;2711.2680061100036
958;2719.6125732341243
959;2728.000904978504
960;2736.4330013431536
961;2744.908862328066
962;2753.4284879332517
963;2761.9918781586966
964;2770.5990330044115
965;2779.249952470389
966;2787.9446365566364
967;2796.68308526315
968;2805.4652985899265
969;2814.291276536973
970;2823.1610191042855
971;2832.0745262918645
972;2841.031798099706
973;2850.0328345278213
974;2859.0776355761955
975;2868.1662012448396
976;2877.2985315337464
977;2886.474626442923
978;2895.6944859723662
979;2904.9581101220756
980;2914.265498892055
981;2923.6166522822896
982;2933.011570292798
983;2942.450252923576
984;2951.932700174617
985;2961.458912045917
986;2971.028888537494
987;2980.6426296493337
988;2990.300135381436
989;3000.0014057338085
990;3009.746440706447
991;3019.535240299356
992;3029.36780451252
993;3039.2441333459574
994;3049.164226799665
995;3059.128084873635
996;3069.135707567868
997;3079.1870948823707
998;3089.28224681714
999;3099.421163372179
1000;3109.6038445474733
1001;3119.830290343045
1002;3130.100500758879
1003;3140.41447579498
1004;3150.772215451343
1005;3161.1737197279763
1006;3171.6189886248794
1007;3182.108022142038
1008;3192.64082027947
1009;3203.217383037172
1010;3213.837710415137
1011;3224.501802413364
1012;3235.2096590318615
1013;3245.961280270629
1014;3256.7566661296587
1015;3267.5958166089513
1016;3278.478731708514
1017;3289.4054114283463
1018;3300.3758557684414
1019;3311.390064728799
1020;3322.448038309427
1021;3333.5497765103246
1022;3344.695279331485
1023;3355.884546772908
1024;3367.117578834601
1025;3378.3943755165637
1026;3389.714936818782
1027;3401.0792627412775
1028;3412.4873532840356
1029;3423.9392084470637
1030;3435.434828230347
1031;3446.974212633908
1032;3458.5573616577312
1033;3470.1842753018245
1034;3481.854953566173
1035;3493.569396450799
1036;3505.3276039556877
1037;3517.129576080846
1038;3528.97531282626
1039;3540.864814191951
1040;3552.798080177905
1041;3564.7751107841286
1042;3576.7959060106114
1043;3588.860465857364
1044;3600.9687903243866
1045;3613.1208794116646
1046;3625.31673311922
1047;3637.5563514470414
1048;3649.8397343951256
1049;3662.1668819634724
1050;3674.537794152089
1055;3737.0488243991713
1058;3775.080617990614
