6.987851605136394251e-02;3.983317713312085201e-02;1.059892964423735719e+02;1.058811833000000036e+02;1.060475633000000073e+02;1.061307533000000234e+02;1.065467033000000470e+02
5.700538056851892077e-02;2.661272050104129469e-02;1.216020168051532266e+02;1.215327367999999950e+02;1.218855267999999228e+02;1.220619217999998796e+02;1.229438967999996777e+02
5.063193797932499102e-02;3.094946277184960903e-02;1.083314984458951216e+02;1.083709506999999945e+02;1.089870906999999107e+02;1.092951606999998688e+02;1.108355106999996593e+02
5.367742300884934675e-02;2.722010635401829817e-02;1.276515756944677662e+02;1.276394267000000013e+02;1.284640266999997777e+02;1.288763266999996517e+02;1.309378266999990785e+02
5.256415094339658006e-02;2.679935127901612174e-02;1.188650239755067162e+02;1.187769959000000028e+02;1.198825909000001673e+02;1.204353884000002495e+02;1.231993759000006605e+02
8.106107886435276466e-02;6.574375231451794199e-02;1.262489670607463950e+02;1.261199816000000027e+02;1.274855282279069968e+02;1.281683015418605009e+02;1.315821681116279933e+02
5.317507463651022226e-02;2.846988177048057761e-02;9.944798417854835293e+01;9.947621250000000259e+01;1.011596158520449649e+02;1.020013175280674460e+02;1.062098259081798517e+02
4.786034718833909629e+00;1.606842197573532083e+00;1.185847762533893075e+02;1.184919721999999922e+02;1.203755655520451313e+02;1.213173622280677080e+02;1.260263456081805487e+02
4.737493931076493942e-02;2.900832770761670523e-02;1.185010026518932733e+02;1.185511980999999935e+02;1.207476314520450842e+02;1.218458481280676438e+02;1.273369315081803848e+02
6.539489839572242003e-02;3.905840946752094089e-02;1.230329235870440812e+02;1.230862247000000025e+02;1.254935280520449652e+02;1.266971797280674537e+02;1.327154381081798533e+02
6.779426237623738249e-02;4.334143669833061957e-02;1.222623923763131017e+02;1.222644290000000069e+02;1.249020973520450610e+02;1.262209315280675810e+02;1.328151024081802234e+02
5.437583072603277556e-02;2.816129216791390943e-02;1.121636733210413865e+02;1.122123227000000156e+02;1.150371010520450881e+02;1.164494902280676172e+02;1.235114361081803054e+02
6.367875393053017419e-01;2.674828458094323791e-01;1.118841579266311470e+02;1.117864341000000081e+02;1.148021224520450687e+02;1.163099666280676132e+02;1.238491875081802789e+02
5.289484132055346371e-02;3.811819977326526276e-02;1.067893074806207494e+02;1.067358935999999972e+02;1.099971693083668072e+02;1.116278071625502264e+02;1.197809964334672657e+02
7.531916814159216045e-02;4.754188981881082854e-02;1.257743781510253882e+02;1.257238763999999946e+02;1.292792278226526150e+02;1.310569035339789536e+02;1.399452820906105330e+02
9.124297321533945127e-01;3.808757605288004000e-01;1.217497311979677050e+02;1.219381287999999870e+02;1.256853302226526381e+02;1.275589309339789565e+02;1.369269344906105914e+02
5.013900676328528899e-02;2.999535145907173544e-02;1.190469117058699169e+02;1.189392430000000047e+02;1.229253794226525827e+02;1.249184476339788716e+02;1.348837886906103165e+02
4.284608606680741227e-02;3.031241920847069574e-02;1.237556097570132749e+02;1.237674106999999992e+02;1.279940571226527481e+02;1.301073803339791084e+02;1.406739963906109949e+02
4.989493025078411276e-02;2.981722240923922324e-02;8.877611874491672950e+01;8.878130980000000250e+01;9.346993622265301838e+01;9.581424943397952632e+01;1.075358154906120660e+02
4.100120703653591797e-02;3.157077561851634462e-02;1.196310020316124110e+02;1.196119377999999926e+02;1.246621092226532852e+02;1.271871949339799244e+02;1.398126234906131629e+02
4.806608308823513698e-02;2.836332197352727305e-02;9.503922136648552055e+01;9.510106989999999882e+01;1.012701863226534442e+02;1.043547445339801669e+02;1.197775355906137804e+02
1.161759452508962287e+00;7.319026996974391519e-01;1.072584047407710415e+02;1.082020994000000087e+02;1.146476158226532505e+02;1.178703740339798713e+02;1.339841650906129757e+02
4.866352012383882986e-02;2.710787481678359270e-02;1.075202106559659683e+02;1.079343566999999950e+02;1.146614981226533700e+02;1.180250688339800433e+02;1.348429223906134666e+02
6.703382744836776375e-02;4.336222879526376028e-02;1.121865763512281262e+02;1.122670410000000061e+02;1.193429591430836041e+02;1.228809182146254102e+02;1.405707135723343981e+02
6.893627215686308485e-02;4.539468307806639180e-02;9.386231276491139397e+01;9.390053619999997636e+01;1.015145193430835775e+02;1.053215109146253781e+02;1.243564687723343809e+02
4.758687082976786886e-02;2.990715357862584745e-02;9.933765857929152787e+01;9.932502589999998577e+01;1.072930140430835877e+02;1.112770081146253744e+02;1.311969784723343651e+02
4.285985136129473461e-02;2.848006639920253741e-02;1.120190514858226720e+02;1.121245475000000056e+02;1.204321284208614600e+02;1.245859188812921730e+02;1.453548711834457947e+02
4.778220307231179076e-02;2.738537640288321931e-02;1.141127941357736404e+02;1.141150602999999961e+02;1.226762696455189143e+02;1.269568743182783805e+02;1.483598976820757116e+02
5.026009340252009933e-02;2.713740747661216868e-02;8.871728724348420769e+01;8.861312639999999874e+01;9.787430574551942186e+01;1.025048954182791192e+02;1.256578437820776628e+02
7.091144201312948869e-02;4.240523562388737178e-02;1.189492233946988904e+02;1.189687041999999906e+02;1.284719185455197135e+02;1.332235257182795749e+02;1.569815615820789105e+02
6.249143912018884778e-02;4.060331222125419109e-02;1.073823458694234887e+02;1.072404695000000032e+02;1.173797288455197219e+02;1.224493585182795812e+02;1.477975068820788920e+02
7.284099774943629535e-02;4.483478431223681532e-02;8.924790155488702226e+01;8.892851000000000283e+01;9.977807881920443833e+01;1.052028632288066490e+02;1.323267852768177590e+02
6.777305256410304235e-02;4.547654872323479702e-02;1.048649851084396687e+02;1.048168919999999957e+02;1.159137372371148444e+02;1.214621598556722546e+02;1.492042729484593622e+02
6.629772400463855575e-02;4.575316254658975956e-02;1.282031637732911236e+02;1.281973522000000116e+02;1.394722174371146934e+02;1.451096500556720343e+02;1.732968131484587104e+02
6.307345579268244795e-02;3.521870658890344924e-02;1.256150179869001136e+02;1.256967186999999910e+02;1.372083373279193381e+02;1.429641466418790117e+02;1.717431932116774078e+02
4.549532472324817334e-02;2.091145832664925361e-02;1.260373424884214018e+02;1.260320773999999915e+02;1.378191523570332322e+02;1.437126898355498383e+02;1.731803772281329543e+02
5.179337370753306358e-02;2.515137968360489987e-02;1.253918617799280071e+02;1.253336209999999937e+02;1.373663009570331042e+02;1.433826409355496594e+02;1.734643408281324071e+02
6.999006617647017536e-02;4.524129801948916646e-02;1.127507129297380857e+02;1.126732863999999950e+02;1.250815063570331347e+02;1.312856163355496903e+02;1.623061662281325255e+02
6.846618943533674950e-02;4.610488904748245853e-02;1.106559779921469868e+02;1.105994455000000016e+02;1.232352004570331161e+02;1.295530779355496804e+02;1.611424653281324595e+02
7.437564376590263815e-02;4.723010419564802748e-02;8.905725046555454583e+01;8.916334549999999126e+01;1.026333654570335625e+02;1.093683754355503339e+02;1.430434253281342478e+02
1.209453900709211438e-01;6.363981693406249585e-02;1.232147515414195453e+02;1.232246106000000054e+02;1.369487755570335707e+02;1.438108580355503534e+02;1.781212704281342951e+02
4.261822148444900371e-01;3.058169224459208468e-01;1.064538751791996276e+02;1.071768907000000155e+02;1.211603356570337269e+02;1.281520581355505612e+02;1.631106705281348468e+02
9.365623368964177964e-02;8.454170787344153504e-02;1.110068163555247054e+02;1.110325999000000081e+02;1.252480898570336478e+02;1.323558348355504677e+02;1.678945597281345954e+02
6.998497220135255215e-02;4.476737598885058983e-02;1.068518129832804107e+02;1.076483650999999924e+02;1.221406650570335728e+02;1.293868150355503417e+02;1.656175649281342999e+02
6.817544016091248160e-02;4.388160871204412755e-02;1.155673692415697360e+02;1.157347412999999960e+02;1.304329312570331183e+02;1.377820262355496936e+02;1.745275011281325135e+02
3.434390441051727860e-01;2.775437479455276635e-01;1.248603070632119341e+02;1.247852220000000045e+02;1.397549619570330606e+02;1.472398319355496028e+02;1.846641818281322287e+02
7.180611352487702159e-02;4.564772804911498838e-02;1.258152817108915826e+02;1.256975579000000067e+02;1.408947578570331132e+02;1.484933578355496593e+02;1.864863577281324183e+02
6.601114693200717254e-02;4.369665440742552531e-02;1.049721371416409568e+02;1.049635906000000034e+02;1.203860905570331568e+02;1.280973405355497334e+02;1.666535904281326168e+02
7.463455595667822795e-02;4.271565623339441259e-02;1.118651383496524687e+02;1.119675938999999971e+02;1.275672438570331906e+02;1.353670688355497873e+02;1.743661937281327994e+02
7.050310873093146302e-02;4.661135115842700988e-02;1.271742216435023636e+02;1.271985160999999920e+02;1.430398560570334041e+02;1.509605260355500889e+02;1.905638759281335979e+02
7.362680990099010336e-02;4.390447873750488034e-02;1.193150520582424861e+02;1.191923071999999877e+02;1.352874469457657938e+02;1.433350168186487110e+02;1.835728661830632404e+02
6.269708464566976780e-02;4.187339946777202809e-02;1.111764481993768499e+02;1.111657962999999825e+02;1.275454260457657654e+02;1.357352409186486568e+02;1.766843152830630856e+02
6.936022881355881353e-02;3.949299647653068540e-02;1.127405802343200349e+02;1.127348137999999977e+02;1.293694585457658945e+02;1.376867809186488500e+02;1.792733927830635707e+02
7.092852623798981404e-02;4.270513042475368448e-02;1.071162754752422188e+02;1.071405006000000100e+02;1.239754892346549155e+02;1.323929835519823541e+02;1.744804551386196181e+02
6.924514583333328532e-02;4.255920161542747077e-02;1.236734876819383260e+02;1.236790391000000113e+02;1.407672336806008104e+02;1.493113309709011958e+02;1.920318174224031793e+02
4.243103143712691205e-02;2.530648499356518907e-02;1.186349695307786760e+02;1.185872617999999932e+02;1.359648137490217437e+02;1.446535897235326047e+02;1.880974695960869951e+02
9.827505056360702484e-02;6.954677582098743593e-02;1.256979467751531701e+02;1.256454709999999864e+02;1.432681879490220354e+02;1.520795464235330599e+02;1.961363387960881823e+02
4.443679909502262215e-01;6.849387561804586300e-01;9.069446684303800055e+01;8.971798119999999699e+01;1.078383581490221843e+02;1.168985466235332922e+02;1.621994889960887747e+02
8.962800737847257393e-01;5.176913864119404574e-01;1.252734999363681396e+02;1.249763809999999893e+02;1.433136579490221152e+02;1.524822964235331710e+02;1.983254887960884503e+02
6.115293076923094401e-02;3.978691651311764416e-02;1.210286741860506936e+02;1.208152346999999907e+02;1.395374355379111080e+02;1.488985359568666809e+02;1.957040380516444884e+02
6.974152380952401697e-02;4.209896718567655849e-02;1.221291845716366993e+02;1.218592669999999885e+02;1.409662378379109100e+02;1.505197232568663708e+02;1.982871503516436462e+02
3.596343644444434107e-01;1.963752876604685227e-01;1.269787501379163643e+02;1.269471992999999941e+02;1.463003901379107390e+02;1.559769855568661114e+02;2.043599626516429737e+02
7.274186998087994738e-02;4.467946035640581876e-02;1.259999129408629841e+02;1.257986825999999922e+02;1.454609934379109291e+02;1.552921488568664188e+02;2.044479259516438105e+02
7.591373352962821341e-02;4.279082846627286357e-02;1.119900944460001995e+02;1.118196078000000000e+02;1.317057786379109530e+02;1.416488640568664437e+02;1.913642911516438403e+02
4.438828757721320628e-02;2.339999903351186114e-02;1.065781621735563505e+02;1.065173449000000119e+02;1.265884257379108675e+02;1.366239661568662882e+02;1.868016682516434344e+02
4.525469146889049554e-02;2.328268095441380497e-02;1.113947469733250415e+02;1.113148160000000075e+02;1.316755918379107868e+02;1.418559797568661622e+02;1.927579193516430962e+02
4.735702475247607207e-02;2.208039647743066658e-02;1.187690480235375787e+02;1.187396300000000053e+02;1.393392358379106497e+02;1.496390387568659719e+02;2.011380533516426112e+02
7.931521800708125902e-02;4.381605128863844817e-02;1.102381182996247446e+02;1.102295670000000030e+02;1.310596978379105053e+02;1.414747632568657423e+02;1.935500903516419555e+02
7.774469783495589759e-02;4.095937124587387124e-02;1.230548680920510947e+02;1.229756521000000191e+02;1.440561481103245853e+02;1.545963961154868684e+02;2.072976361412982840e+02
2.602566319463112121e-01;2.008559225400668724e-01;1.187900585690351818e+02;1.187190073999999953e+02;1.400648714440322919e+02;1.507378034660484332e+02;2.041024635761291961e+02
4.345102579004728183e-02;2.287576816156999121e-02;1.104389711479504115e+02;1.103027708000000047e+02;1.319329798440322747e+02;1.427480843660484027e+02;1.968236069761290423e+02
4.522972273047175251e-02;2.246581143951847243e-02;1.193603800899057035e+02;1.194027556999999859e+02;1.413236025347300142e+02;1.522840259520951065e+02;2.070861430389201132e+02
1.072062263382687064e+00;5.499360878728021262e-01;1.062691041265269689e+02;1.062368345000000005e+02;1.283654987421374187e+02;1.394298308632061776e+02;1.947514914685496592e+02
7.242005237711565679e-02;4.662527208946963542e-02;1.053823037062322356e+02;1.052967101000000127e+02;1.276148243421375241e+02;1.387738814632064077e+02;1.945691670685500867e+02
4.965702931854143465e-02;2.735016847499952691e-02;1.086550680828698887e+02;1.089694601000000063e+02;1.315376093421376709e+02;1.428216839632066808e+02;1.992420570685506505e+02
4.616155703580391428e-02;2.152598546520930259e-02;1.180605989728277763e+02;1.181045720000000046e+02;1.409142962421377376e+02;1.523191583632068671e+02;2.093434689685508943e+02
4.065129241645242669e-02;2.179617357917246895e-02;1.114545067106148508e+02;1.113949499999999944e+02;1.345213587447553891e+02;1.460845631171332855e+02;2.039005849790215734e+02
9.172545435467051311e-02;7.342191851412618875e-02;1.187534902102973717e+02;1.186769691000000080e+02;1.420720078447554044e+02;1.537695272171333158e+02;2.122571240790215938e+02
4.502781719702105001e-02;2.297186246785707167e-02;1.065610020407896741e+02;1.064902999999999906e+02;1.300933637447553792e+02;1.418948956171333293e+02;2.009025549790216019e+02
4.264300477859166161e-02;1.990153549866182509e-02;1.186665742834329649e+02;1.187566632999999996e+02;1.426454270447554791e+02;1.545898089171335528e+02;2.143117182790219317e+02
8.089320961952667366e-02;4.129523356603501810e-02;1.129438732674673531e+02;1.129140893999999804e+02;1.371800131447554634e+02;1.493129750171335104e+02;2.099777843790218981e+02
4.505534670704009620e-02;2.111923974238052309e-02;1.102014935735041661e+02;1.101861628000000053e+02;1.347140515447556197e+02;1.469779959171337964e+02;2.082977177790224346e+02
7.177105322924019759e-02;4.291550123120382865e-02;1.121660138237288749e+02;1.122649877999999859e+02;1.370394715447555427e+02;1.494267134171336409e+02;2.113629227790222558e+02
5.009008078101093719e-01;3.163072157977414589e-01;1.030395605690714689e+02;1.036957651000000027e+02;1.288380459570551579e+02;1.414091863855830979e+02;2.042648885282206948e+02
4.326008845401191349e-02;2.271675523403854716e-02;1.142371688679544945e+02;1.141659114999999929e+02;1.395268723570551401e+02;1.522073527855830264e+02;2.156097549282205819e+02
4.493496142591112130e-02;2.142131026516125650e-02;9.924814821364745399e+01;9.928279719999999031e+01;1.250304030570551959e+02;1.379042059855831326e+02;2.022732206282208267e+02
4.777999435028226077e-02;2.321697246357629779e-02;1.120807639855637632e+02;1.121146024000000097e+02;1.380307361517918991e+02;1.509888030276881068e+02;2.157791374071675818e+02
8.888898031197307592e-01;7.645989827780955705e-01;1.061652673123280692e+02;1.049351685000000032e+02;1.311624341882080387e+02;1.442760670323122554e+02;2.098442312528321452e+02
4.874461457943998072e-02;2.148705244984294369e-02;1.181685844650333905e+02;1.181392606000000001e+02;1.445640982112848008e+02;1.577765170169273006e+02;2.238386110451391744e+02
5.874002205258652826e-02;3.448920904666358950e-02;1.215708057211365372e+02;1.214699209000000053e+02;1.481259437676948778e+02;1.614539552015423851e+02;2.280940123707794669e+02
4.267027061595408954e-02;2.285929701640657813e-02;1.063985003597913703e+02;1.063847655999999944e+02;1.332780084676947752e+02;1.467246299015421869e+02;2.139577370707791033e+02
4.662646122860056308e-02;2.215498868385684661e-02;1.101935315843738437e+02;1.101610372000000098e+02;1.372730364962662009e+02;1.508290361443993675e+02;2.186090343850648026e+02
1.363453088578091110e+00;5.680439733551666537e-01;1.226036241168078362e+02;1.229384314999999930e+02;1.503085757962660978e+02;1.639936479443991857e+02;2.324190086850644548e+02
4.186361926163829211e-02;2.464420845046004852e-02;1.230727604225657643e+02;1.231040883000000150e+02;1.507034025962664145e+02;1.645030597443998204e+02;2.335013454850656558e+02
4.040639343185494642e-02;2.368896404494499203e-02;1.226038969962040142e+02;1.225693145999999842e+02;1.503817738962665089e+02;1.642880035443999986e+02;2.338191517850660830e+02
4.446273958710637159e-02;2.131885896464493640e-02;1.110455542571108651e+02;1.110900310000000104e+02;1.391372602962666463e+02;1.531608749444002626e+02;2.232789481850665823e+02
7.065295099139576318e-02;4.486004058463372718e-02;1.280502291627062732e+02;1.279889184999999969e+02;1.562653777962664776e+02;1.704036074443999951e+02;2.410947556850659339e+02
7.012137451737469884e-02;4.371021415283871808e-02;1.042016270121003174e+02;1.042195020999999997e+02;1.326625963962666503e+02;1.468841435444003025e+02;2.179918792850665739e+02
